<?xml version="1.0" encoding="UTF-8"?><svg xmlns="http://www.w3.org/2000/svg" xmlns:xlink="http://www.w3.org/1999/xlink" fill-opacity="1" color-rendering="auto" color-interpolation="auto" text-rendering="auto" stroke="black" stroke-linecap="square" width="1346" stroke-miterlimit="10" shape-rendering="auto" stroke-opacity="1" fill="black" stroke-dasharray="none" font-weight="normal" stroke-width="1" height="705" font-family="'Dialog'" font-style="normal" stroke-linejoin="miter" font-size="12px" stroke-dashoffset="0" image-rendering="auto">
  <!--Generated by ySVG 2.5-->
  <defs id="genericDefs"/>
  <g>
    <defs id="defs1">
      <clipPath clipPathUnits="userSpaceOnUse" id="clipPath1">
        <path d="M0 0 L1346 0 L1346 705 L0 705 L0 0 Z"/>
      </clipPath>
      <clipPath clipPathUnits="userSpaceOnUse" id="clipPath2">
        <path d="M113 328 L1459 328 L1459 1033 L113 1033 L113 328 Z"/>
      </clipPath>
    </defs>
    <g fill="white" text-rendering="geometricPrecision" shape-rendering="geometricPrecision" transform="translate(-113,-328)" stroke="white">
      <rect x="113" width="1346" height="705" y="328" clip-path="url(#clipPath2)" stroke="none"/>
    </g>
    <g fill="gray" text-rendering="geometricPrecision" shape-rendering="geometricPrecision" transform="matrix(1,0,0,1,-113,-328)" stroke="gray">
      <rect x="128.1628" width="1314.9072" height="21.666" y="413.6215" clip-path="url(#clipPath2)" stroke="none"/>
    </g>
    <g stroke-linecap="butt" font-size="15px" transform="matrix(1,0,0,1,-113,-328)" fill="white" text-rendering="geometricPrecision" font-family="sans-serif" shape-rendering="geometricPrecision" stroke="white" stroke-miterlimit="1.45">
      <text x="1318.5431" xml:space="preserve" y="430.1234" clip-path="url(#clipPath2)" stroke="none">resource-project</text>
    </g>
    <g text-rendering="geometricPrecision" stroke-miterlimit="1.45" stroke-dasharray="6,2" shape-rendering="geometricPrecision" transform="matrix(1,0,0,1,-113,-328)" stroke-linecap="butt">
      <rect x="128.1628" y="413.6215" clip-path="url(#clipPath2)" fill="none" width="1314.9072" rx="4" ry="4" height="603.9821"/>
    </g>
    <g fill="rgb(252,183,17)" text-rendering="geometricPrecision" shape-rendering="geometricPrecision" transform="matrix(1,0,0,1,-113,-328)" stroke="rgb(252,183,17)">
      <rect x="867.8269" width="110" height="30" y="450.2875" clip-path="url(#clipPath2)" stroke="none"/>
    </g>
    <g stroke-linecap="butt" transform="matrix(1,0,0,1,-113,-328)" fill="white" text-rendering="geometricPrecision" font-family="sans-serif" shape-rendering="geometricPrecision" stroke="white" stroke-miterlimit="1.45">
      <text x="881.2897" xml:space="preserve" y="469.8227" clip-path="url(#clipPath2)" stroke="none">:MaterialEntity</text>
    </g>
    <g fill="rgb(252,183,17)" text-rendering="geometricPrecision" shape-rendering="geometricPrecision" transform="matrix(1,0,0,1,-113,-328)" stroke="rgb(252,183,17)">
      <rect x="577.7314" width="159" height="41" y="809.1605" clip-path="url(#clipPath2)" stroke="none"/>
    </g>
    <g stroke-linecap="butt" transform="matrix(1,0,0,1,-113,-328)" fill="white" text-rendering="geometricPrecision" font-family="sans-serif" shape-rendering="geometricPrecision" stroke="white" stroke-miterlimit="1.45">
      <text x="598.5087" xml:space="preserve" y="827.1292" clip-path="url(#clipPath2)" stroke="none">:ProjectContribution</text>
      <text x="628.7402" xml:space="preserve" y="841.262" clip-path="url(#clipPath2)" stroke="none">(ex Event)</text>
    </g>
    <g fill="rgb(252,183,17)" text-rendering="geometricPrecision" shape-rendering="geometricPrecision" transform="matrix(1,0,0,1,-113,-328)" stroke="rgb(252,183,17)">
      <rect x="433.3377" width="110" height="30" y="648.4127" clip-path="url(#clipPath2)" stroke="none"/>
    </g>
    <g stroke-linecap="butt" transform="matrix(1,0,0,1,-113,-328)" fill="white" text-rendering="geometricPrecision" font-family="sans-serif" shape-rendering="geometricPrecision" stroke="white" stroke-miterlimit="1.45">
      <text x="466.4969" xml:space="preserve" y="667.9479" clip-path="url(#clipPath2)" stroke="none">:Project</text>
    </g>
    <g fill="rgb(252,183,17)" text-rendering="geometricPrecision" shape-rendering="geometricPrecision" transform="matrix(1,0,0,1,-113,-328)" stroke="rgb(252,183,17)">
      <rect x="663.6989" width="110" height="30" y="656.1438" clip-path="url(#clipPath2)" stroke="none"/>
    </g>
    <g stroke-linecap="butt" transform="matrix(1,0,0,1,-113,-328)" fill="white" text-rendering="geometricPrecision" font-family="sans-serif" shape-rendering="geometricPrecision" stroke="white" stroke-miterlimit="1.45">
      <text x="681.4626" xml:space="preserve" y="675.6789" clip-path="url(#clipPath2)" stroke="none">:Involvement</text>
    </g>
    <g fill="rgb(252,183,17)" text-rendering="geometricPrecision" shape-rendering="geometricPrecision" transform="matrix(1,0,0,1,-113,-328)" stroke="rgb(252,183,17)">
      <rect x="481.6514" width="110" height="30" y="450.2875" clip-path="url(#clipPath2)" stroke="none"/>
    </g>
    <g stroke-linecap="butt" transform="matrix(1,0,0,1,-113,-328)" fill="white" text-rendering="geometricPrecision" font-family="sans-serif" shape-rendering="geometricPrecision" stroke="white" stroke-miterlimit="1.45">
      <text x="494.4375" xml:space="preserve" y="469.8227" clip-path="url(#clipPath2)" stroke="none">:ProjectOutput</text>
    </g>
    <g fill="rgb(153,204,0)" text-rendering="geometricPrecision" shape-rendering="geometricPrecision" transform="matrix(1,0,0,1,-113,-328)" stroke="rgb(153,204,0)">
      <ellipse rx="52.0031" ry="15" clip-path="url(#clipPath2)" cx="893.4329" cy="914.0719" stroke="none"/>
    </g>
    <g stroke-linecap="butt" transform="matrix(1,0,0,1,-113,-328)" fill="white" text-rendering="geometricPrecision" font-family="sans-serif" shape-rendering="geometricPrecision" stroke="white" stroke-miterlimit="1.45">
      <text x="864.0627" xml:space="preserve" y="918.6071" clip-path="url(#clipPath2)" stroke="none">xsd:string</text>
    </g>
    <g fill="rgb(153,204,0)" text-rendering="geometricPrecision" shape-rendering="geometricPrecision" transform="matrix(1,0,0,1,-113,-328)" stroke="rgb(153,204,0)">
      <ellipse rx="52.0031" ry="15" clip-path="url(#clipPath2)" cx="635.8963" cy="591.274" stroke="none"/>
    </g>
    <g stroke-linecap="butt" transform="matrix(1,0,0,1,-113,-328)" fill="white" text-rendering="geometricPrecision" font-family="sans-serif" shape-rendering="geometricPrecision" stroke="white" stroke-miterlimit="1.45">
      <text x="606.5262" xml:space="preserve" y="595.8092" clip-path="url(#clipPath2)" stroke="none">xsd:string</text>
    </g>
    <g fill="rgb(153,204,0)" text-rendering="geometricPrecision" shape-rendering="geometricPrecision" transform="matrix(1,0,0,1,-113,-328)" stroke="rgb(153,204,0)">
      <ellipse rx="52.0031" ry="15" clip-path="url(#clipPath2)" cx="290.7802" cy="733.2503" stroke="none"/>
    </g>
    <g stroke-linecap="butt" transform="matrix(1,0,0,1,-113,-328)" fill="white" text-rendering="geometricPrecision" font-family="sans-serif" shape-rendering="geometricPrecision" stroke="white" stroke-miterlimit="1.45">
      <text x="261.4101" xml:space="preserve" y="737.7855" clip-path="url(#clipPath2)" stroke="none">xsd:string</text>
    </g>
    <g fill="rgb(153,204,0)" text-rendering="geometricPrecision" shape-rendering="geometricPrecision" transform="matrix(1,0,0,1,-113,-328)" stroke="rgb(153,204,0)">
      <ellipse rx="52.0031" ry="15" clip-path="url(#clipPath2)" cx="383.1829" cy="799.4943" stroke="none"/>
    </g>
    <g stroke-linecap="butt" transform="matrix(1,0,0,1,-113,-328)" fill="white" text-rendering="geometricPrecision" font-family="sans-serif" shape-rendering="geometricPrecision" stroke="white" stroke-miterlimit="1.45">
      <text x="350.9182" xml:space="preserve" y="804.0295" clip-path="url(#clipPath2)" stroke="none">xsd:anyURI</text>
    </g>
    <g fill="rgb(252,183,17)" text-rendering="geometricPrecision" shape-rendering="geometricPrecision" transform="matrix(1,0,0,1,-113,-328)" stroke="rgb(252,183,17)">
      <rect x="920.3487" width="110" height="30" y="814.6605" clip-path="url(#clipPath2)" stroke="none"/>
    </g>
    <g stroke-linecap="butt" transform="matrix(1,0,0,1,-113,-328)" fill="white" text-rendering="geometricPrecision" font-family="sans-serif" shape-rendering="geometricPrecision" stroke="white" stroke-miterlimit="1.45">
      <text x="939.7998" xml:space="preserve" y="834.1956" clip-path="url(#clipPath2)" stroke="none">:Attachment</text>
    </g>
    <g fill="rgb(252,183,17)" text-rendering="geometricPrecision" shape-rendering="geometricPrecision" transform="matrix(1,0,0,1,-113,-328)" stroke="rgb(252,183,17)">
      <rect x="1012.6103" width="110" height="30" y="649.5471" clip-path="url(#clipPath2)" stroke="none"/>
    </g>
    <g stroke-linecap="butt" transform="matrix(1,0,0,1,-113,-328)" fill="white" text-rendering="geometricPrecision" font-family="sans-serif" shape-rendering="geometricPrecision" stroke="white" stroke-miterlimit="1.45">
      <text x="1039.2362" xml:space="preserve" y="669.0823" clip-path="url(#clipPath2)" stroke="none">:Resource</text>
    </g>
    <g fill="rgb(252,183,17)" text-rendering="geometricPrecision" shape-rendering="geometricPrecision" transform="matrix(1,0,0,1,-113,-328)" stroke="rgb(252,183,17)">
      <rect x="1122.6103" width="110" height="30" y="709.5471" clip-path="url(#clipPath2)" stroke="none"/>
    </g>
    <g stroke-linecap="butt" transform="matrix(1,0,0,1,-113,-328)" fill="white" text-rendering="geometricPrecision" font-family="sans-serif" shape-rendering="geometricPrecision" stroke="white" stroke-miterlimit="1.45">
      <text x="1165.6835" xml:space="preserve" y="729.0823" clip-path="url(#clipPath2)" stroke="none">:File</text>
    </g>
    <g fill="rgb(252,183,17)" text-rendering="geometricPrecision" shape-rendering="geometricPrecision" transform="matrix(1,0,0,1,-113,-328)" stroke="rgb(252,183,17)">
      <rect x="1087.4123" width="110" height="30" y="761.9001" clip-path="url(#clipPath2)" stroke="none"/>
    </g>
    <g stroke-linecap="butt" transform="matrix(1,0,0,1,-113,-328)" fill="white" text-rendering="geometricPrecision" font-family="sans-serif" shape-rendering="geometricPrecision" stroke="white" stroke-miterlimit="1.45">
      <text x="1128.5637" xml:space="preserve" y="781.4353" clip-path="url(#clipPath2)" stroke="none">:Mail</text>
    </g>
    <g fill="rgb(153,204,0)" text-rendering="geometricPrecision" shape-rendering="geometricPrecision" transform="matrix(1,0,0,1,-113,-328)" stroke="rgb(153,204,0)">
      <ellipse rx="52.0031" ry="15" clip-path="url(#clipPath2)" cx="1046.9095" cy="581.6612" stroke="none"/>
    </g>
    <g stroke-linecap="butt" transform="matrix(1,0,0,1,-113,-328)" fill="white" text-rendering="geometricPrecision" font-family="sans-serif" shape-rendering="geometricPrecision" stroke="white" stroke-miterlimit="1.45">
      <text x="1017.5393" xml:space="preserve" y="586.1964" clip-path="url(#clipPath2)" stroke="none">xsd:string</text>
    </g>
    <g fill="rgb(153,204,0)" text-rendering="geometricPrecision" shape-rendering="geometricPrecision" transform="matrix(1,0,0,1,-113,-328)" stroke="rgb(153,204,0)">
      <ellipse rx="52.0031" ry="15" clip-path="url(#clipPath2)" cx="1366.3605" cy="648.5495" stroke="none"/>
    </g>
    <g stroke-linecap="butt" transform="matrix(1,0,0,1,-113,-328)" fill="white" text-rendering="geometricPrecision" font-family="sans-serif" shape-rendering="geometricPrecision" stroke="white" stroke-miterlimit="1.45">
      <text x="1336.9904" xml:space="preserve" y="653.0847" clip-path="url(#clipPath2)" stroke="none">xsd:string</text>
    </g>
    <g fill="rgb(153,204,0)" text-rendering="geometricPrecision" shape-rendering="geometricPrecision" transform="matrix(1,0,0,1,-113,-328)" stroke="rgb(153,204,0)">
      <ellipse rx="52.0031" ry="15" clip-path="url(#clipPath2)" cx="1376.0668" cy="724.5471" stroke="none"/>
    </g>
    <g stroke-linecap="butt" transform="matrix(1,0,0,1,-113,-328)" fill="white" text-rendering="geometricPrecision" font-family="sans-serif" shape-rendering="geometricPrecision" stroke="white" stroke-miterlimit="1.45">
      <text x="1346.6967" xml:space="preserve" y="729.0823" clip-path="url(#clipPath2)" stroke="none">xsd:string</text>
    </g>
    <g fill="rgb(153,204,0)" text-rendering="geometricPrecision" shape-rendering="geometricPrecision" transform="matrix(1,0,0,1,-113,-328)" stroke="rgb(153,204,0)">
      <ellipse rx="52.0031" ry="15" clip-path="url(#clipPath2)" cx="1187.5835" cy="584.5471" stroke="none"/>
    </g>
    <g stroke-linecap="butt" transform="matrix(1,0,0,1,-113,-328)" fill="white" text-rendering="geometricPrecision" font-family="sans-serif" shape-rendering="geometricPrecision" stroke="white" stroke-miterlimit="1.45">
      <text x="1158.2134" xml:space="preserve" y="589.0823" clip-path="url(#clipPath2)" stroke="none">xsd:string</text>
    </g>
    <g fill="rgb(153,204,0)" text-rendering="geometricPrecision" shape-rendering="geometricPrecision" transform="matrix(1,0,0,1,-113,-328)" stroke="rgb(153,204,0)">
      <ellipse rx="52.0031" ry="15" clip-path="url(#clipPath2)" cx="1376.0668" cy="772.9296" stroke="none"/>
    </g>
    <g stroke-linecap="butt" transform="matrix(1,0,0,1,-113,-328)" fill="white" text-rendering="geometricPrecision" font-family="sans-serif" shape-rendering="geometricPrecision" stroke="white" stroke-miterlimit="1.45">
      <text x="1346.6967" xml:space="preserve" y="777.4647" clip-path="url(#clipPath2)" stroke="none">xsd:string</text>
    </g>
    <g fill="rgb(252,183,17)" text-rendering="geometricPrecision" shape-rendering="geometricPrecision" transform="matrix(1,0,0,1,-113,-328)" stroke="rgb(252,183,17)">
      <rect x="476.4627" width="159" height="41" y="936.321" clip-path="url(#clipPath2)" stroke="none"/>
    </g>
    <g stroke-linecap="butt" transform="matrix(1,0,0,1,-113,-328)" fill="white" text-rendering="geometricPrecision" font-family="sans-serif" shape-rendering="geometricPrecision" stroke="white" stroke-miterlimit="1.45">
      <text x="517.1825" xml:space="preserve" y="961.3561" clip-path="url(#clipPath2)" stroke="none">:Contribution</text>
    </g>
    <g fill="rgb(252,183,17)" text-rendering="geometricPrecision" shape-rendering="geometricPrecision" transform="matrix(1,0,0,1,-113,-328)" stroke="rgb(252,183,17)">
      <rect x="204.9676" width="110" height="30" y="515.1413" clip-path="url(#clipPath2)" stroke="none"/>
    </g>
    <g stroke-linecap="butt" transform="matrix(1,0,0,1,-113,-328)" fill="white" text-rendering="geometricPrecision" font-family="sans-serif" shape-rendering="geometricPrecision" stroke="white" stroke-miterlimit="1.45">
      <text x="227.079" xml:space="preserve" y="534.6765" clip-path="url(#clipPath2)" stroke="none">:UserGroup</text>
    </g>
    <g fill="rgb(252,183,17)" text-rendering="geometricPrecision" shape-rendering="geometricPrecision" transform="matrix(1,0,0,1,-113,-328)" stroke="rgb(252,183,17)">
      <rect x="867.8269" width="110" height="30" y="343.3876" clip-path="url(#clipPath2)" stroke="none"/>
    </g>
    <g stroke-linecap="butt" transform="matrix(1,0,0,1,-113,-328)" fill="white" text-rendering="geometricPrecision" font-family="sans-serif" shape-rendering="geometricPrecision" stroke="white" stroke-miterlimit="1.45">
      <text x="885.2477" xml:space="preserve" y="362.9228" clip-path="url(#clipPath2)" stroke="none">:SpatialEntity</text>
    </g>
    <g fill="rgb(252,183,17)" text-rendering="geometricPrecision" shape-rendering="geometricPrecision" transform="matrix(1,0,0,1,-113,-328)" stroke="rgb(252,183,17)">
      <rect x="247.8015" width="110" height="30" y="343.3876" clip-path="url(#clipPath2)" stroke="none"/>
    </g>
    <g stroke-linecap="butt" transform="matrix(1,0,0,1,-113,-328)" fill="white" text-rendering="geometricPrecision" font-family="sans-serif" shape-rendering="geometricPrecision" stroke="white" stroke-miterlimit="1.45">
      <text x="281.321" xml:space="preserve" y="362.9228" clip-path="url(#clipPath2)" stroke="none">:Person</text>
    </g>
    <g fill="rgb(252,183,17)" text-rendering="geometricPrecision" shape-rendering="geometricPrecision" transform="matrix(1,0,0,1,-113,-328)" stroke="rgb(252,183,17)">
      <rect x="991.9095" width="110" height="30" y="343.3876" clip-path="url(#clipPath2)" stroke="none"/>
    </g>
    <g stroke-linecap="butt" transform="matrix(1,0,0,1,-113,-328)" fill="white" text-rendering="geometricPrecision" font-family="sans-serif" shape-rendering="geometricPrecision" stroke="white" stroke-miterlimit="1.45">
      <text x="1000.9749" xml:space="preserve" y="362.9228" clip-path="url(#clipPath2)" stroke="none">:TemporalEntity</text>
    </g>
    <g fill="rgb(252,183,17)" text-rendering="geometricPrecision" shape-rendering="geometricPrecision" transform="matrix(1,0,0,1,-113,-328)" stroke="rgb(252,183,17)">
      <rect x="743.7443" width="110" height="30" y="343.3876" clip-path="url(#clipPath2)" stroke="none"/>
    </g>
    <g stroke-linecap="butt" transform="matrix(1,0,0,1,-113,-328)" fill="white" text-rendering="geometricPrecision" font-family="sans-serif" shape-rendering="geometricPrecision" stroke="white" stroke-miterlimit="1.45">
      <text x="771.4718" xml:space="preserve" y="362.9228" clip-path="url(#clipPath2)" stroke="none">:Duration</text>
    </g>
    <g fill="rgb(252,183,17)" text-rendering="geometricPrecision" shape-rendering="geometricPrecision" transform="matrix(1,0,0,1,-113,-328)" stroke="rgb(252,183,17)">
      <rect x="610.5814" width="110" height="30" y="343.3876" clip-path="url(#clipPath2)" stroke="none"/>
    </g>
    <g stroke-linecap="butt" transform="matrix(1,0,0,1,-113,-328)" fill="white" text-rendering="geometricPrecision" font-family="sans-serif" shape-rendering="geometricPrecision" stroke="white" stroke-miterlimit="1.45">
      <text x="646.4916" xml:space="preserve" y="362.9228" clip-path="url(#clipPath2)" stroke="none">:Agent</text>
      <path fill="none" d="M577.7214 849.6938 L571.2375 851.4589 L560.5975 855.0146 L552.7577 858.4672 L547.7183 861.8167 L546.2487 863.4528 L545.4791 865.0631 L545.4096 866.6477 L546.0402 868.2065 L549.4016 871.2467 L555.5634 874.1838 L562.2849 876.7488 L569.4421 879.1859 L575.7902 880.7257 L581.3289 881.3684 L586.0585 881.1139 L589.9788 879.9623 L593.0898 877.9135 L595.3917 874.9675 L596.8843 871.1244 L600.2271 857.9384" clip-path="url(#clipPath2)" stroke="black"/>
      <path fill="black" d="M602.1929 850.1837 L594.3974 860.5871 L599.9813 858.9078 L604.0908 863.0444 Z" clip-path="url(#clipPath2)" stroke="none"/>
      <rect x="516.6673" width="84.5137" height="18.1328" y="866.3999" clip-path="url(#clipPath2)" stroke="none"/>
      <text fill="black" x="518.6673" xml:space="preserve" y="880.0015" clip-path="url(#clipPath2)" stroke="none">:hasRepliesTo</text>
      <path fill="none" d="M636.4051 809.1605 L509.2778 684.0247" clip-path="url(#clipPath2)" stroke="black"/>
      <path fill="black" d="M503.5764 678.4127 L508.6209 690.3941 L509.9904 684.7263 L515.636 683.2674 Z" clip-path="url(#clipPath2)" stroke="none"/>
      <rect x="536.0543" width="67.873" height="18.1328" y="734.7202" clip-path="url(#clipPath2)" stroke="none"/>
      <text fill="black" x="538.0543" xml:space="preserve" y="748.3218" clip-path="url(#clipPath2)" stroke="none">:hasProject</text>
      <path fill="none" d="M512.9719 648.4127 L545.4877 628.6135 L553.3098 625.5934 L556.6815 625.7188 L559.6936 626.9346 L559.6936 626.9346 L561.8143 628.9879 L562.5117 631.6262 L561.7858 634.8495 L559.6367 638.6577 L547.9092 655.4677" clip-path="url(#clipPath2)" stroke="black"/>
      <path fill="black" d="M543.3318 662.0288 L554.2986 655.048 L548.4814 654.6476 L546.0972 649.3264 Z" clip-path="url(#clipPath2)" stroke="none"/>
      <rect x="513.0263" width="104.6641" height="18.1328" y="621.39" clip-path="url(#clipPath2)" stroke="none"/>
      <text fill="black" x="515.0263" xml:space="preserve" y="634.9915" clip-path="url(#clipPath2)" stroke="none">:hasParentProject</text>
      <path fill="none" d="M712.8824 686.1437 L668.0729 801.7016" clip-path="url(#clipPath2)" stroke="black"/>
      <path fill="black" d="M665.1806 809.1605 L674.1808 799.7798 L668.4344 800.7692 L664.8572 796.1645 Z" clip-path="url(#clipPath2)" stroke="none"/>
      <rect x="618.2131" width="141.6367" height="18.1328" y="738.5857" clip-path="url(#clipPath2)" stroke="none"/>
      <text fill="black" x="620.2131" xml:space="preserve" y="752.1873" clip-path="url(#clipPath2)" stroke="none">:hasProjectContribution</text>
      <path fill="none" d="M491.9955 648.4127 L531.0983 488.0598" clip-path="url(#clipPath2)" stroke="black"/>
      <path fill="black" d="M532.9935 480.2875 L525.293 490.7614 L530.8613 489.0313 L535.0083 493.1304 Z" clip-path="url(#clipPath2)" stroke="none"/>
      <rect x="451.391" width="122.207" height="18.1328" y="555.2837" clip-path="url(#clipPath2)" stroke="none"/>
      <text fill="black" x="453.391" xml:space="preserve" y="568.8853" clip-path="url(#clipPath2)" stroke="none">hasProjectOutput (*)</text>
      <path fill="none" d="M714.5948 850.1605 L853.2378 899.7074" clip-path="url(#clipPath2)" stroke="black"/>
      <path fill="black" d="M860.7712 902.3996 L851.1537 893.6529 L852.2961 899.3708 L847.7885 903.0696 Z" clip-path="url(#clipPath2)" stroke="none"/>
      <rect x="761.9979" width="44.2598" height="18.1328" y="865.9431" clip-path="url(#clipPath2)" stroke="none"/>
      <text fill="black" x="763.9979" xml:space="preserve" y="879.5447" clip-path="url(#clipPath2)" stroke="none">:memo</text>
      <path fill="none" d="M736.7314 839.1871 L800.9473 846.8821 L810.3467 849.3356 L818.6871 854.3163 L869.535 894.9668" clip-path="url(#clipPath2)" stroke="black"/>
      <path fill="black" d="M875.7837 899.9623 L869.5329 888.5637 L868.754 894.3424 L863.2886 896.3745 Z" clip-path="url(#clipPath2)" stroke="none"/>
      <rect x="795.6781" width="30.3965" height="18.1328" y="839.0055" clip-path="url(#clipPath2)" stroke="none"/>
      <text fill="black" x="797.678" xml:space="preserve" y="852.6071" clip-path="url(#clipPath2)" stroke="none">:title</text>
      <path fill="none" d="M688.7496 850.1605 L778.6293 908.6196 L787.4164 912.7089 L797.0121 914.072 L833.4297 914.072" clip-path="url(#clipPath2)" stroke="black"/>
      <path fill="black" d="M841.4297 914.072 L829.4297 909.072 L832.4297 914.072 L829.4297 919.072 Z" clip-path="url(#clipPath2)" stroke="none"/>
      <rect x="714.5748" width="73.0059" height="18.1328" y="881.6332" clip-path="url(#clipPath2)" stroke="none"/>
      <text fill="black" x="716.5748" xml:space="preserve" y="895.2348" clip-path="url(#clipPath2)" stroke="none">:description</text>
      <path fill="none" d="M671.8594 850.1605 L722.0848 920.5475 L725.2486 924.0539 L728.9315 926.4327 L733.1335 927.6842 L737.8546 927.8082 L835.7381 919.1659" clip-path="url(#clipPath2)" stroke="black"/>
      <path fill="black" d="M843.7071 918.4623 L831.3138 914.537 L834.7419 919.2538 L832.1933 924.4983 Z" clip-path="url(#clipPath2)" stroke="none"/>
      <rect x="623.0683" width="104.7754" height="18.1328" y="897.7831" clip-path="url(#clipPath2)" stroke="none"/>
      <text fill="black" x="625.0683" xml:space="preserve" y="911.3847" clip-path="url(#clipPath2)" stroke="none">:shortDescription</text>
      <path fill="none" d="M703.1481 656.1437 L656.5531 611.1992" clip-path="url(#clipPath2)" stroke="black"/>
      <path fill="black" d="M650.7952 605.6453 L655.9608 617.5749 L657.2729 611.8935 L662.9033 610.3776 Z" clip-path="url(#clipPath2)" stroke="none"/>
      <rect x="660.6873" width="30.2324" height="18.1328" y="620.7013" clip-path="url(#clipPath2)" stroke="none"/>
      <text fill="black" x="662.6873" xml:space="preserve" y="634.3029" clip-path="url(#clipPath2)" stroke="none">:role</text>
      <path fill="none" d="M433.3377 674.0231 L347.4164 690.5987 L338.1666 693.6609 L330.0551 699.059 L313.1699 713.7587" clip-path="url(#clipPath2)" stroke="black"/>
      <path fill="black" d="M307.136 719.0115 L319.4699 714.9034 L313.9241 713.1021 L312.9038 707.3611 Z" clip-path="url(#clipPath2)" stroke="none"/>
      <rect x="380.1569" width="30.3965" height="18.1328" y="672.2841" clip-path="url(#clipPath2)" stroke="none"/>
      <text fill="black" x="382.1569" xml:space="preserve" y="685.8857" clip-path="url(#clipPath2)" stroke="none">:title</text>
      <path fill="none" d="M448.8531 678.4127 L415.6115 691.041 L332.1086 719.2759" clip-path="url(#clipPath2)" stroke="black"/>
      <path fill="black" d="M324.5301 721.8384 L337.4994 722.7311 L333.0559 718.9556 L334.2962 713.2581 Z" clip-path="url(#clipPath2)" stroke="none"/>
      <rect x="360.9173" width="73.0059" height="18.1328" y="688.1257" clip-path="url(#clipPath2)" stroke="none"/>
      <text fill="black" x="362.9173" xml:space="preserve" y="701.7272" clip-path="url(#clipPath2)" stroke="none">:description</text>
      <path fill="none" d="M481.2957 678.4127 L452.2068 740.3733 L449.7259 744.2696 L446.5327 746.9064 L442.6273 748.2838 L438.0097 748.4017 L347.7174 739.1097" clip-path="url(#clipPath2)" stroke="black"/>
      <path fill="black" d="M339.7594 738.2907 L351.1845 744.4929 L348.7122 739.212 L352.2083 734.5454 Z" clip-path="url(#clipPath2)" stroke="none"/>
      <rect x="369.276" width="104.7754" height="18.1328" y="737.6531" clip-path="url(#clipPath2)" stroke="none"/>
      <text fill="black" x="371.276" xml:space="preserve" y="751.2546" clip-path="url(#clipPath2)" stroke="none">:shortDescription</text>
      <path fill="none" d="M470.8968 678.4127 L441.7424 703.4868 L433.5884 708.7773 L424.2896 711.6075 L344.0114 724.6212" clip-path="url(#clipPath2)" stroke="black"/>
      <path fill="black" d="M336.1145 725.9013 L348.7599 728.9166 L344.9985 724.4611 L347.1598 719.0455 Z" clip-path="url(#clipPath2)" stroke="none"/>
      <rect x="381.7059" width="37.0645" height="18.1328" y="706.44" clip-path="url(#clipPath2)" stroke="none"/>
      <text fill="black" x="383.7059" xml:space="preserve" y="720.0416" clip-path="url(#clipPath2)" stroke="none">:color</text>
      <path fill="none" d="M488.3377 678.4127 L488.3377 757.4764 L487.7398 762.0334 L485.9461 765.7046 L482.9567 768.4898 L478.7714 770.3892 L426.5999 786.2745" clip-path="url(#clipPath2)" stroke="black"/>
      <path fill="black" d="M418.9468 788.6048 L431.8829 789.8926 L427.5565 785.9833 L428.97 780.3262 Z" clip-path="url(#clipPath2)" stroke="none"/>
      <rect x="438.7603" width="43.2637" height="18.1328" y="766.919" clip-path="url(#clipPath2)" stroke="none"/>
      <text fill="black" x="440.7603" xml:space="preserve" y="780.5205" clip-path="url(#clipPath2)" stroke="none">:image</text>
      <path fill="none" d="M920.3486 829.6605 L744.7314 829.6605" clip-path="url(#clipPath2)" stroke="black"/>
      <path fill="black" d="M736.7314 829.6605 L748.7314 834.6605 L745.7314 829.6605 L748.7314 824.6605 Z" clip-path="url(#clipPath2)" stroke="none"/>
      <rect x="773.7119" width="141.6367" height="18.1328" y="820.5941" clip-path="url(#clipPath2)" stroke="none"/>
      <text fill="black" x="775.7119" xml:space="preserve" y="834.1956" clip-path="url(#clipPath2)" stroke="none">:hasProjectContribution</text>
      <path fill="none" d="M983.1218 814.6605 L1049.4482 686.6687" clip-path="url(#clipPath2)" stroke="black"/>
      <path fill="black" d="M1053.1292 679.5658 L1043.1685 687.9196 L1048.9882 687.5565 L1052.0471 692.5207 Z" clip-path="url(#clipPath2)" stroke="none"/>
      <rect x="980.8489" width="80.9395" height="18.1328" y="731.8849" clip-path="url(#clipPath2)" stroke="none"/>
      <text fill="black" x="982.8489" xml:space="preserve" y="745.4865" clip-path="url(#clipPath2)" stroke="none">:hasResource</text>
      <path fill="none" d="M1150.1102 709.5471 L1108.2787 686.7299" clip-path="url(#clipPath2)" stroke="black"/>
      <path d="M1095.1102 679.5471 L1106.2834 692.4761 L1112.0297 681.9414 Z" clip-path="url(#clipPath2)" stroke="none"/>
      <path fill="none" d="M1095.1102 679.5471 L1106.2834 692.4761 L1112.0297 681.9414 Z" clip-path="url(#clipPath2)" stroke="black"/>
      <path fill="none" d="M1132.4257 761.9001 L1085.9098 692.033" clip-path="url(#clipPath2)" stroke="black"/>
      <path d="M1077.5969 679.5471 L1081.4696 696.1905 L1091.4584 689.5402 Z" clip-path="url(#clipPath2)" stroke="none"/>
      <path fill="none" d="M1077.5969 679.5471 L1081.4696 696.1905 L1091.4584 689.5402 Z" clip-path="url(#clipPath2)" stroke="black"/>
      <path fill="none" d="M1063.864 649.5471 L1052.5845 604.384" clip-path="url(#clipPath2)" stroke="black"/>
      <path fill="black" d="M1050.646 596.6224 L1048.7028 609.4764 L1052.8268 605.3542 L1058.4047 607.0533 Z" clip-path="url(#clipPath2)" stroke="none"/>
      <rect x="1020.7569" width="73.0059" height="18.1328" y="614.0377" clip-path="url(#clipPath2)" stroke="none"/>
      <text fill="black" x="1022.757" xml:space="preserve" y="627.6393" clip-path="url(#clipPath2)" stroke="none">:description</text>
      <path fill="none" d="M1214.8649 709.5471 L1328.6544 663.7314" clip-path="url(#clipPath2)" stroke="black"/>
      <path fill="black" d="M1336.0754 660.7434 L1323.0764 660.5872 L1327.7268 664.1049 L1326.8114 669.8635 Z" clip-path="url(#clipPath2)" stroke="none"/>
      <rect x="1251.8067" width="40.3574" height="18.1328" y="677.4819" clip-path="url(#clipPath2)" stroke="none"/>
      <text fill="black" x="1253.8066" xml:space="preserve" y="691.0835" clip-path="url(#clipPath2)" stroke="none">:mime</text>
      <path fill="none" d="M1232.6102 724.5471 L1316.0637 724.5471" clip-path="url(#clipPath2)" stroke="black"/>
      <path fill="black" d="M1324.0637 724.5471 L1312.0637 719.5471 L1315.0637 724.5471 L1312.0637 729.5471 Z" clip-path="url(#clipPath2)" stroke="none"/>
      <rect x="1261.5242" width="30.9473" height="18.1328" y="715.4807" clip-path="url(#clipPath2)" stroke="none"/>
      <text fill="black" x="1263.5242" xml:space="preserve" y="729.0823" clip-path="url(#clipPath2)" stroke="none">:size</text>
      <path fill="none" d="M1090.1052 649.5471 L1160.2814 602.7526" clip-path="url(#clipPath2)" stroke="black"/>
      <path fill="black" d="M1166.9374 598.3143 L1154.1796 600.8117 L1159.4495 603.3073 L1159.7273 609.1317 Z" clip-path="url(#clipPath2)" stroke="none"/>
      <rect x="1112.3986" width="30.3965" height="18.1328" y="615.4807" clip-path="url(#clipPath2)" stroke="none"/>
      <text fill="black" x="1114.3987" xml:space="preserve" y="629.0823" clip-path="url(#clipPath2)" stroke="none">:title</text>
      <path fill="none" d="M1232.6102 739.1126 L1323.6083 763.2114" clip-path="url(#clipPath2)" stroke="black"/>
      <path fill="black" d="M1331.3417 765.2594 L1321.0216 757.3539 L1322.6416 762.9554 L1318.4615 767.0208 Z" clip-path="url(#clipPath2)" stroke="none"/>
      <rect x="1244.477" width="57.7949" height="18.1328" y="740.8417" clip-path="url(#clipPath2)" stroke="none"/>
      <text fill="black" x="1246.4769" xml:space="preserve" y="754.4432" clip-path="url(#clipPath2)" stroke="none">:filename</text>
      <path fill="none" d="M616 850.1445 L616 921.2936" clip-path="url(#clipPath2)" stroke="black"/>
      <path d="M616 936.2936 L622 920.2936 L610 920.2936 Z" clip-path="url(#clipPath2)" stroke="none"/>
      <path fill="none" d="M616 936.2936 L622 920.2936 L610 920.2936 Z" clip-path="url(#clipPath2)" stroke="black"/>
      <path fill="none" d="M461.0269 648.4127 L280.0352 549.006" clip-path="url(#clipPath2)" stroke="black"/>
      <path fill="black" d="M273.0232 545.1548 L281.1341 555.3141 L280.9117 549.4874 L285.9482 546.5492 Z" clip-path="url(#clipPath2)" stroke="none"/>
      <rect x="336.9669" width="60.0918" height="18.1328" y="587.7106" clip-path="url(#clipPath2)" stroke="none"/>
      <text fill="black" x="338.9669" xml:space="preserve" y="601.3122" clip-path="url(#clipPath2)" stroke="none">:hasTeam</text>
      <path fill="none" d="M922.8268 450.2875 L922.8268 388.3876" clip-path="url(#clipPath2)" stroke="black"/>
      <path d="M922.8268 373.3876 L916.8268 389.3876 L928.8268 389.3876 Z" clip-path="url(#clipPath2)" stroke="none"/>
      <path fill="none" d="M922.8268 373.3876 L916.8268 389.3876 L928.8268 389.3876 Z" clip-path="url(#clipPath2)" stroke="black"/>
      <path fill="none" d="M479.2137 648.4127 L316.0829 380.2225" clip-path="url(#clipPath2)" stroke="black"/>
      <path fill="black" d="M311.9254 373.3876 L313.8898 386.2383 L316.6026 381.0768 L322.4334 381.0415 Z" clip-path="url(#clipPath2)" stroke="none"/>
      <rect x="378.3436" width="67.9316" height="18.1328" y="529.3543" clip-path="url(#clipPath2)" stroke="none"/>
      <text fill="black" x="380.3436" xml:space="preserve" y="542.9559" clip-path="url(#clipPath2)" stroke="none">:hasAuthor</text>
      <path fill="none" d="M685.2388 809.1605 L798.7443 726.0804 L798.7443 388.3876" clip-path="url(#clipPath2)" stroke="black"/>
      <path d="M798.7443 373.3876 L792.7443 389.3876 L804.7443 389.3876 Z" clip-path="url(#clipPath2)" stroke="none"/>
      <path fill="none" d="M798.7443 373.3876 L792.7443 389.3876 L804.7443 389.3876 Z" clip-path="url(#clipPath2)" stroke="black"/>
      <path fill="none" d="M719.4426 656.1437 L727.018 503.3487 L679.9841 380.8875" clip-path="url(#clipPath2)" stroke="black"/>
      <path fill="black" d="M677.1158 373.4193 L676.7507 386.4142 L680.3426 381.821 L686.0858 382.8289 Z" clip-path="url(#clipPath2)" stroke="none"/>
      <rect x="691.693" width="62.3711" height="18.1328" y="577.7754" clip-path="url(#clipPath2)" stroke="none"/>
      <text fill="black" x="693.6929" xml:space="preserve" y="591.377" clip-path="url(#clipPath2)" stroke="none">:hasAgent</text>
    </g>
  </g>
</svg>
